#reg_a is 1
#reg_b is 1
#reg_c is 0
#reg_d is 0

loop(2 to 99){
    #reg_a is (#reg_a+1)
    #reg_b is 1
    #reg_c is 0
    #reg_d is 0
    loop(1 to 99){
        #reg_b is (#reg_b + 1)
            if(#reg_b =? #reg_a){
               #reg_d is 1
            }
            if(#reg_d =? 0){
                if((#reg_a % #reg_b) =? 0){
                    #reg_c is 1
                }
            }       
    }
    if(#reg_c =? 0){
        show #reg_a
    }
}

